# $FreeBSD: src/share/syscons/fonts/iso08-8x14.fnt,v 1.1.2.2 2002/04/14 15:40:53 phantom Exp $
# $DragonFly: src/share/syscons/fonts/iso08-8x14.fnt,v 1.2 2003/06/17 06:37:02 dillon Exp $
begin 644 iso08-8x14
M````````````````````````````````````````````````````````````
M````````````````````````````````````````````````````````````
M````````````````````````````````````````````````````````````
M````````````````````````````````````````````````````````````
M````````````````````````````````````````````````````````````
M````````````````````````````````````````````````````````````
M````````````````````````````````````````````````````````````
M````````````````````````````````````````````````````````````
M````````````````````````````````````````````````````````````
M````````````````````````````````````````````````````````````
M```````````````````8/#P\&!@`&!@`````8V-C(@``````````````-C9_
M-C8V?S8V````#`P^8V%@/@-#8SX,#```````86,&#!@S8P``````'#8V'#MN
M9F8[````,#!@``````````````````P8,#`P,#`8#```````&`P&!@8&!@P8
M`````````&8\_SQF````````````&!A^&!@`````````````````&!@8,```
M````````_@`````````````````````8&````````0,&#!@P8$`````````<
M-F-C:V-C-AP```````P</`P,#`P,/P``````/F,#!@P8,&-_```````^8P,#
M'@,#8SX```````8.'C9F?P8&#P``````?V!@8'X#`V,^```````<,&!@?F-C
M8SX``````']C`P8,&!@8&```````/F-C8SYC8V,^```````^8V-C/P,#!CP`
M```````8&````!@8`````````!@8````&!@P```````&#!@P8#`8#`8`````
M`````'X``'X`````````8#`8#`8,&#!@```````^8V,&#`P`#`P``````#YC
M8V]O;VQ@/@``````"!PV8V-_8V-C``````!^,S,S/C,S,WX``````!XS86!@
M8&$S'@``````?#8S,S,S,S9\``````!_,S$T/#0Q,W\``````'\S,30\-#`P
M>```````'C-A8&!O8S,=``````!C8V-C?V-C8V,``````#P8&!@8&!@8/```
M````#P8&!@8&9F8\``````!S,S8V/#8V,W,``````'@P,#`P,#$S?P``````
M8W=_:V-C8V-C``````!C<WM_;V=C8V,``````#YC8V-C8V-C/@``````?C,S
M,SXP,#!X```````^8V-C8V-K;SX'`````'XS,S,^-C,S<P``````/F-C,!P&
M8V,^``````!^?EH8&!@8&#P``````&-C8V-C8V-C/@``````8V-C8V-C-AP(
M``````!C8V-C:VM_-C8``````&9F9CP8/&9F9@``````9F9F9CP8&!@\````
M``!_8T8,&#!A8W\``````#PP,#`P,#`P/```````0&!P.!P.!P,!```````\
M#`P,#`P,##P````('#9C`````````````````````````````/\`,!@,````
M`````````````````#P&/F9F.P``````<#`P/#8S,S,^```````````^8V!@
M8SX```````X&!AXV9F9F.P``````````/F-_8&,^```````<-C(P?#`P,'@`
M`````````#MF9F8^!F8\````<#`P-CLS,S-S```````,#``<#`P,#!X`````
M``8&``X&!@8&9F8\````<#`P,S8\-C-S```````X&!@8&!@8&#P`````````
M`'9_:VMK:P``````````;C,S,S,S```````````^8V-C8SX``````````&XS
M,S,^,#!X````````.V9F9CX&!@\```````!N.S,P,'@``````````#YC.`YC
M/@``````"!@8?A@8&!L.``````````!F9F9F9CL``````````&-C8V,V'```
M````````8V-K:W\V``````````!C-AP<-F,``````````&-C8V,_`P8\````
M````?V8,&#-_```````.&!@8<!@8&`X``````!@8&!@8&!@8&```````<!@8
M&`X8&!AP`````#MN````````````````````````````````````````````
M````````````````````````````````````````````````````````````
M````````````````````````````````````````````````````````````
M````````````````````````````````````````````````````````````
M````````````````````````````````````````````````````````````
M````````````````````````````````````````````````````````````
M````````````````````````````````````````````````````````````
M````````````````````````````````````````````````````````````
M````````````````````````````````````````````````````````````
M````````````````````````````````````````````````````````````
M````````````````````````````````````````````````````````````
M`````````````````````````!@8?L/`P,-^&!@`````'#8R,'@P,#!S?@``
M`````,9\QL;&?,8```````!F9CP8?AA^&!@`````&!@8&````!@8&!@````^
M8S`<-F-C-AP&8SX``,8````````````````````X1)JBHJ*:1#@`````````
MQFPX.&S&`````````!LV;#8;``````````````!_`P,#``````````````#^
M````````````.$2ZJK*JJD0X````_P`````````````````X;&PX````````
M````````&!A^&!@``'X`````/&8,&#)^``````````!X##@,#'@`````````
M``P8,````````````````````#,S,S,S/C!@````?]O;VWL;&QL;````````
M````&````````````````````````!@,>``8.!@8&#P``````````````!@`
M?@`8````````````;#8;-FP```````!@X&-F;!@V;MH_!@8``&#@8V9L&#!N
MPP8,'P``X#!C-NP8-F[:/P8&````````````````````````````````````
M````````````````````````````````````````````````````````````
M````````````````````````````````````````````````````````````
M````````````````````````````````````````````````````````````
M````````````````````````````````````````````````````````````
M````````````````````````````````````````````````````````````
M````````````````````````````````````````````````````````````
M````````````````````````````````````````````````````````````
M````````````````````````````````````````````````````````````
M````````````````````````````````````````````````````````````
M````````````````````````````````````_P#_`````&-C,SMN9F-C````
M````?`8&!@8&!G\````````<!@8&!AXV8P```````'\&!@8&!@8&````````
M?@,#`V-C8V,````````X#`P,#`P,#````````'X8&!@,#!@P````````?C-C
M8V-C8V,```````!F:VMC8V-F/````````#P&!@8,````````````?@,#!@8&
M!@8&!P````!^`P,#`P,&?`````!@8'X#`P,&#!@8````````?F-C8V-C8W\`
M``````!N>S-C8V-C;P```````!P&!@P,#`P,#`X`````'`8&!@8&!CX`````
M``!^,V-C8V-F/````````#,S,S,S&PY\````````?"9F=@8&!@8&!P````!^
M(V-S`P,#?P```````&9F9F9L>&!@8'``````8V,S'@P&`W\```````!^`P,S
M-C8W,#`P`````'X#`P,#`P,#````````:VMK:VM[8SX```````!^,S,S,S,S
M<P``````````````````````````````````````````````````````````
=````````````````````````````````````````
`
end
