# $FreeBSD: src/share/syscons/fonts/iso02-8x8.fnt,v 1.2.2.1 2002/04/14 15:40:52 phantom Exp $
# $DragonFly: src/share/syscons/fonts/iso02-8x8.fnt,v 1.2 2003/06/17 06:37:02 dillon Exp $
begin 644 iso02-8x8
M````````````````````````````````````````````````````````````
M````````````````````````````````````````````````````````````
M````````````````````````````````````````````````````````````
M````````````````````````````````````````````````````````````
M````````````````````````````````````````````````````````````
M````````````````````````````````````````````````````&#P\&!@`
M&`!L;&P``````&QL_FS^;&P`&#Y@/`9\&```QLP8,&;&`#AL.';<S'8`&!@P
M```````,&#`P,!@,`#`8#`P,&#```&8\_SQF````&!A^&!@`````````&!@P
M````_@```````````!@8``8,&#!@P(``?,;&UL;&?``8.!@8&!A^`#QF!APP
M9GX`/&8&'`9F/``</&S,_@P>`'Y@?`8&9CP`'#!@?&9F/`!^9@8,&!@8`#QF
M9CQF9CP`/&9F/@8,.```&!@``!@8```8&```&!@P#!@P8#`8#````'X``'X`
M`&`P&`P8,&``/&8&#!@`&`!\QM[>WL!X`!@\9F9^9F8`_&9F?&9F_``\9L#`
MP&8\`/AL9F9F;/@`_F)H>&AB_@#^8FAX:&#P`#QFP,#.9CX`9F9F?F9F9@`\
M&!@8&!@\`!X,#`S,S'@`YF9L>&QFY@#P8&!@8F;^`,;N_O[6QL8`QN;VWL[&
MQ@`X;,;&QFPX`/QF9GQ@8/``/&9F9FX\#@#\9F9\;&;F`#QF,!@,9CP`?EH8
M&!@8/`!F9F9F9F9^`&9F9F9F/!@`QL;&UO[NQ@#&;#@X;,;&`&9F9CP8&#P`
M_L:,&#)F_@`\,#`P,#`\`,!@,!@,!@(`/`P,#`P,/``0.&S&````````````
M``#_,#`8`````````'@,?,QV`.!@8'QF9MP````\9F!F/``<#`Q\S,QV````
M/&9^8#P`'#8P>#`P>````';,S'P,^.!@;'9F9N8`&``X&!@8/``&``8&!F9F
M/.!@9FQX;.8`.!@8&!@8/````,S^_M;&````?&9F9F8````\9F9F/````-QF
M9GQ@\```=LS,?`P>``#<=F9@\````#Y@/`9\`!`P?#`P-!@```#,S,S,=@``
M`&9F9CP8````QM;^_FP```#&;#ALQ@```&9F9CX&?```?DP8,GX`#A@8<!@8
M#@`8&!@8&!@8`'`8&`X8&'``=MP`````````````````````````````````
M````````````````````````````````````````````````````````````
M````````````````````````````````````````````````````````````
M````````````````````````````````````````````````````````````
M````````````````````````````````````````````````````````````
M````````````````````````````````````````````````````````````
M`````````````````````````````````````!@\9GYF;A@.QGP```````#P
M:'CPXF;^``!"/&9F/$(`^VY@8&)F_@`,&'S".(9\`#QF.&QL.,QX9@``````
M``!L.'S".(9\`#QF,!@,9CPX-AQ^6A@8/``,&/Z&&&+^`````'X`````;#C^
MAAAB_@`8`/Z&&&+^`#AL;#@```````!X#'S,=AP````````P'#@:'CQX&#P`
M#!@```````#[;F!@8&#P``P8/$`X!'@`;#@````````````````,.&PX/$`X
M!'@````^8#P&?#AL.#!\,#08``P8`'P8,'P`-FP```````!L.`!\&#!\```8
M`'P8,'P`#!C\QOS,Q@`,&#QF?F9F`!PV/&9^9F8`9CP\9GYF9@!F&#QF?F9F
M`.9L8&!B9OX`#!A\QL#&?``\9L#`P&8\.&PX?,;`QGP`#!C^8'A@_@#^8FAX
M:&+^',8`_F!X8/X`;#C^8'A@_@`,&#P8&!@\`!PV/!@8&#P`;#C\9F9F_`#X
M;&;V9FSX``P8YO;>SL8`;#CF]M[.Q@`,&'S&QL9\`#AL?,;&QGP`-FQ\QL;&
M?`#&?,;&QL9\``#&;#ALQ@``;#C\QOS,Q@`X;/;&QL9\``P8QL;&QGP`-FS&
MQL;&?`#&`,;&QL9\``Q^9F8\&#P`?EH8&!@8/`YXS,S8S,;,``P8W'9F8/``
M#!AX#'S,=@`X;'@,?,QV`,9\>`Q\S'8`S`!X#'S,=@!S-C`P,#!X``P8`#Q@
M8#P````\9F!F/#@V'``\8&`\``P8/&9^8#P````\9GY@/!QF`#QF?F`\`#8<
M/&9^8#P`#!@X&!@8/``<-C@8&!@\`&PX#`Q\S'8`##X,?,S,=@`,&'QF9F9F
M`&PX?&9F9F8`#!@`/&9F/``<-@`\9F8\`#9L`#QF9CP`9@`\9F9F/```&`!^
M`!@``&PXW'9F8/``,,PPS,S,=@`8,`#,S,QV`&S8`,S,S'8`S`#,S,S,=@`,
7&&9F9CX&?!`P?#`P-!@.&```````````
`
end
