# $FreeBSD: src/share/syscons/fonts/iso07-8x8.fnt,v 1.3.2.1 2002/04/14 15:40:53 phantom Exp $
# $DragonFly: src/share/syscons/fonts/iso07-8x8.fnt,v 1.2 2003/06/17 06:37:02 dillon Exp $
begin 644 iso07-8x8
M````````````````````````````````````````````````````````````
M````````````````````````````````````````````````````````````
M````````````````````````````````````````````````````````````
M````````````````````````````````````````````````````````````
M````````````````````````````````````````````````````````````
M````````````````````````````````````````````````````&#P\&!@`
M&`!F9B0``````&QL_FS^;&P`&#Y@/`9\&```QLP8,&;&`#AL.';<S'8`&!@P
M```````,&#`P,!@,`#`8#`P,&#```&8\_SQF````&!A^&!@`````````&!@P
M````?@```````````!@8``8,&#!@P(``.&S&UL9L.``8.!@8&!A^`'S&!APP
M9OX`?,8&/`;&?``</&S,_@P>`/[`P/P&QGP`/&#`_,;&?`#^Q@8,&#`P`'S&
MQGS&QGP`?,;&?@8,>```&!@``!@8```8&```&!@P!@P8,!@,!@```'X``'X`
M`&`P&`P8,&``?,8,&!@`&`!\QM[>WL!X`#ALQO[&QL8`_&9F?&9F_``\9L#`
MP&8\`/AL9F9F;/@`_F)H>&AB_@#^8FAX:&#P`#QFP,#.9CH`QL;&_L;&Q@`\
M&!@8&!@\`!X,#`S,S'@`YF9L>&QFY@#P8&!@8F;^`,;N_O[6QL8`QN;VWL[&
MQ@!\QL;&QL9\`/QF9GQ@8/``?,;&QL;.?`[\9F9\;&;F`#QF,!@,9CP`?EH8
M&!@8/`#&QL;&QL9\`,;&QL;&;#@`QL;&UM;^;`#&QFPX;,;&`&9F9CP8&#P`
M_L:,&#)F_@`\,#`P,#`\`,!@,!@,!@(`/`P,#`P,/``0.&S&````````````
M``#_,!@,`````````'@,?,QV`.!@8'QF9MP```!\QL#&?``<#`Q\S,QV````
M?,;^P'P`/&9@^&!@\````';,S'P,^.!@;'9F9N8`&``X&!@8/``&``8&!F9F
M/.!@9FQX;.8`.!@8&!@8/````.S^UM;&````W&9F9F8```!\QL;&?````-QF
M9GQ@\```=LS,?`P>``#<=F!@\````'[`?`;\`#`P_#`P-AP```#,S,S,=@``
M`,;&QFPX````QM;6_FP```#&;#ALQ@```,;&QGX&_```?DP8,GX`#A@8<!@8
M#@`8&!@8&!@8`'`8&`X8&'``=MP`````````````````````````````````
M````````````````````````````````````````````````````````````
M````````````````````````````````````````````````````````````
M````````````````````````````````````````````````````````````
M````````````````````````````````````````````````````````````
M````````````````````````````````````````````````````````````
M`````````````````````````````````````#!`,```````#`(,```````\
M9F#X8&;^```````````````````````8&!@`&!@8`'[`?,9\!OP`9@``````
M```X1+JBND0X```````````````S9LQF,P````#_`P```````'P`````````
M``````````#_`````#AL.```````,##\,#``_``P2!`@>````'`(,`AP````
M"!`````````(TP```````%RV8W]C8V,`&!@```````!?D!`>$!`?`+.S,S\S
M,S,`7HP,#`P,'@``S&8S9LP``%RV8V-C-AP`0,!,4@0('@"SLS,>#`P>`%RV
M8V,V%'<`"-,`,#`P/``X;,;^QL;&`/QF9GQF9OP`_L#`P,#`P``0.&S&QL;^
M`/[`P/S`P/X`_@8,&#!@_@#&QL;^QL;&`'S&QO[&QGP`?A@8&!@8?@#&S-CP
MV,S&`!`X;,;&QL8`QN[^UL;&Q@#&YO;>SL;&`/[&`#@`QOX`?,;&QL;&?`#_
M9F9F9F9F`/S&QOS`P,````````````#^P&`P8,#^`'X8&!@8&!@`9F9F/!@8
M&``0?-;6?!`X`,;&;#ALQL8`$-;6UGP0.``X;,;&;"CN`,,\&!@8&#P`9@!F
M9CP8/``($';,S,QV``@0?L!\P'X`"!"\9F9F9@8($#`P,#`\``C3`.9F9CP`
M``!ZS,S,>@!XS-C\QL;\@```QFPX;,9\?C`8?,;&?````'[`?,!^`'X&'#!@
M/@(<``"\9F9F9@9\QN8^AL9\````,#`P,!P```#&W/#<Q@!\Q@8>-F;&````
MQL;&YMW```""QL9L.`!^&#`\8#X"'```?,;&QGP```#_9F9F9@```'S&QOS`
MP```?L#`?`8<``!^V,S,>````/PP,#8<````YF9F9CP````<5M;6?!```,)L
M.&R&````$-;6UGP0``!$UM;6;`#,`#`P,#`\`&8`YF9F9CP`"!!\QL;&?``(
7$.9F9F8\``@01-;6UFP`````````````
`
end
