# $FreeBSD: src/share/syscons/fonts/iso08-8x16.fnt,v 1.1.2.2 2002/04/14 15:40:53 phantom Exp $
# $DragonFly: src/share/syscons/fonts/iso08-8x16.fnt,v 1.2 2003/06/17 06:37:02 dillon Exp $
begin 644 iso08-8x16
M````````````````````````````````````````````````````````````
M````````````````````````````````````````````````````````````
M````````````````````````````````````````````````````````````
M````````````````````````````````````````````````````````````
M````````````````````````````````````````````````````````````
M````````````````````````````````````````````````````````````
M````````````````````````````````````````````````````````````
M````````````````````````````````````````````````````````````
M````````````````````````````````````````````````````````````
M````````````````````````````````````````````````````````````
M````````````````````````````````````````````````````````````
M```````````````````````````````````````````````8/#P\&!@8`!@8
M``````!F9F8D``````````````````!L;/YL;&S^;&P`````&!A\QL+`?`8&
MAL9\&!@```````#"Q@P8,&#&A@```````#AL;#AVW,S,S'8``````#`P,&``
M````````````````#!@P,#`P,#`8#````````#`8#`P,#`P,&#``````````
M``!F//\\9@``````````````&!A^&!@````````````````````8&!@P````
M`````````/X````````````````````````8&````````````@8,&#!@P(``
M```````X;,;&UM;&QFPX````````&#AX&!@8&!@8?@```````'S&!@P8,&#`
MQOX```````!\Q@8&/`8&!L9\````````#!P\;,S^#`P,'@```````/[`P,#\
M!@8&QGP````````X8,#`_,;&QL9\````````_L8&!@P8,#`P,````````'S&
MQL9\QL;&QGP```````!\QL;&?@8&!@QX```````````8&````!@8````````
M````&!@````8&#``````````!@P8,&`P&`P&````````````?@``?@``````
M``````!@,!@,!@P8,&````````!\QL8,&!@8`!@8`````````'S&QM[>WMS`
M?````````!`X;,;&_L;&QL8```````#\9F9F?&9F9F;\````````/&;"P,#`
MP,)F/````````/AL9F9F9F9F;/@```````#^9F)H>&A@8F;^````````_F9B
M:'AH8&!@\````````#QFPL#`WL;&9CH```````#&QL;&_L;&QL;&````````
M/!@8&!@8&!@8/````````!X,#`P,#,S,S'@```````#F9F9L>'AL9F;F````
M````\&!@8&!@8&)F_@```````,;N_O[6QL;&QL8```````#&YO;^WL[&QL;&
M````````?,;&QL;&QL;&?````````/QF9F9\8&!@8/````````!\QL;&QL;&
MUMY\#`X`````_&9F9GQL9F9FY@```````'S&QF`X#`;&QGP```````!^?EH8
M&!@8&!@\````````QL;&QL;&QL;&?````````,;&QL;&QL9L.!````````#&
MQL;&UM;6_NYL````````QL9L?#@X?&S&Q@```````&9F9F8\&!@8&#P`````
M``#^QH8,&#!@PL;^````````/#`P,#`P,#`P/`````````"`P.!P.!P.!@(`
M```````\#`P,#`P,#`P\`````!`X;,8`````````````````````````````
M`````/\``#`8#```````````````````````>`Q\S,S,=@```````.!@8'AL
M9F9F9MP```````````!\QL#`P,9\````````'`P,/&S,S,S,=@``````````
M`'S&_L#`QGP````````<-C(P>#`P,#!X````````````=LS,S,S,?`S,>```
M`.!@8&QV9F9F9N8````````8&``X&!@8&!@\````````!@8`#@8&!@8&!F9F
M/````.!@8&9L>'AL9N8````````X&!@8&!@8&!@\````````````[/[6UM;6
MQ@```````````-QF9F9F9F8```````````!\QL;&QL9\````````````W&9F
M9F9F?&!@\````````';,S,S,S'P,#!X```````#<=F9@8&#P````````````
M?,9@.`S&?````````!`P,/PP,#`P-AP```````````#,S,S,S,QV````````
M````QL;&QL9L.````````````,;&UM;6_FP```````````#&;#@X.&S&````
M````````QL;&QL;&?@8,^````````/[,&#!@QOX````````.&!@8<!@8&!@.
M````````&!@8&!@8&!@8&````````'`8&!@.&!@8&'```````';<````````
M````````````````````````````````````````````````````````````
M````````````````````````````````````````````````````````````
M````````````````````````````````````````````````````````````
M````````````````````````````````````````````````````````````
M````````````````````````````````````````````````````````````
M````````````````````````````````````````````````````````````
M````````````````````````````````````````````````````````````
M````````````````````````````````````````````````````````````
M````````````````````````````````````````````````````````````
M````````````````````````````````````````````````````````````
M````````````````````````````````````````````````````````````
M````````````````````````````````````````````````````````````
M`````````````````````````````````````!@8?,;`P,#&?!@8```````X
M;&1@\&!@8&#F_```````````QGS&QL;&?,8```````!F9CP8?AA^&!@8````
M```8&!@8&```&!@8&!@`````?,9@.&S&QFPX#,9\`````,8`````````````
M````````?(*:HJ*BFH)\`````````````,9L.#ALQ@`````````````V;-AL
M-@```````````````/X&!@8&````````````````_@````````````!\@KJJ
MLJJJ@GP```````#_````````````````````.&QL.```````````````````
M`!@8?A@8``!^```````\9@P8,GX`````````````?`8\!@9\````````````
M``P8,```````````````````````9F9F9F9F?&!@P````'_;V]M[&QL;&QL`
M`````````````!@`````````````````````````&`QX````&#@8&!@\````
M```````````````8`'X`&```````````````V&PV;-@`````````8.!B9FP8
M,&;.FC\&!@```&#@8F9L&#!@W(8,&#X```#@,&(V[!@P9LZ:/P8&````````
M````````````````````````````````````````````````````````````
M````````````````````````````````````````````````````````````
M````````````````````````````````````````````````````````````
M````````````````````````````````````````````````````````````
M````````````````````````````````````````````````````````````
M````````````````````````````````````````````````````````````
M````````````````````````````````````````````````````````````
M````````````````````````````````````````````````````````````
M````````````````````````````````````````````````````````````
M````````````````````````````````````````````````````````````
M````````````````````````````````````````````````````````````
M`````````````````````````````````/\`_P``````QL9F=MS,QL8`````
M`````/@,#`P,#`S^```````````X#`P,#!PVY@``````````_@P,#`P,#`P`
M`````````/P&!@;&QL;&``````````!P&!@8&!@8&```````````_#`P,!@8
M,&```````````/QFQL;&QL;&``````````#,UM;&QL;&?```````````<!@8
M&#```````````````/P&!@8,#`P,#`P.``````#\!@8&!@8&_````````,#`
M_`8&!@8,&!@``````````/QFQL;&QL;^``````````#<=F;&QL;&W@``````
M````.`P,&!@8&!@8&!P``````#@,#`P,#`Q\``````````#\9L;&QL;,>```
M````````[F9F9F9F+/@``````````/A,S,SL#`P,#`P.``````#\1L;&Y@8&
M_@``````````[F9F;'A@8&!@8'```````.YF9C08#`;^``````````#\!@9F
M9&QN8&!@8```````_`8&!@8&!@8``````````-;6UM;6]L9\``````````#\
M9F9F9F;FY@``````````````````````````````````````````````````
M````````````````````````````````````````````````````````````
!````
`
end
