# $FreeBSD: src/share/syscons/fonts/koi8-r-8x8.fnt,v 1.1.14.1 2002/04/14 15:40:53 phantom Exp $
# $DragonFly: src/share/syscons/fonts/koi8-r-8x8.fnt,v 1.2 2003/06/17 06:37:02 dillon Exp $
begin 644 koi8-r-8x8
M````````````````````````````````````````````````````````````
M````````````````````````````````````````````````````````````
M````````````````````````````````````````````````````````````
M````````````````````````````````````````````````````````````
M````````````````````````````````````````````````````````````
M````````````````````````````````````````````````````,'AX,#``
M,`!L;&P``````&QL_FS^;&P`,'S`>`SX,```QLP8,&;&`#AL.';<S'8`8&#`
M```````8,&!@8#`8`&`P&!@8,&```&8\_SQF````,##\,#``````````,#!@
M````_````````````#`P``8,&#!@P(``?,;.WO;F?``P<#`P,##\`'C,##A@
MS/P`>,P,.`S,>``</&S,_@P>`/S`^`P,S'@`.&#`^,S,>`#\S`P8,#`P`'C,
MS'C,S'@`>,S,?`P8<```,#```#`P```P,```,#!@&#!@P&`P&````/P``/P`
M`&`P&`P8,&``>,P,&#``,`!\QM[>WL!X`#!XS,S\S,P`_&9F?&9F_``\9L#`
MP&8\`/AL9F9F;/@`_F)H>&AB_@#^8FAX:&#P`#QFP,#.9CX`S,S,_,S,S`!X
M,#`P,#!X`!X,#`S,S'@`YF9L>&QFY@#P8&!@8F;^`,;N_O[6QL8`QN;VWL[&
MQ@`X;,;&QFPX`/QF9GQ@8/``>,S,S-QX'`#\9F9\;&;F`'C,X'`<S'@`_+0P
M,#`P>`#,S,S,S,S\`,S,S,S,>#``QL;&UO[NQ@#&1&PX.&S&`,S,S'@P,'@`
M_L:,&#)F_@!X8&!@8&!X`,!@,!@,!@(`>!@8&!@8>``0.&S&````````````
M``#_,#`8`````````'@,?,Q\`&!@8'QF9GP```!XS,#,>``,#`Q\S,Q\````
M>,S\P'@`.&Q@\&!@\````'S,S'P,^&!@?&9F9F8`,`!P,#`P>``,``P,#`QL
M.&!@9FQX;&8`<#`P,#`P>````,S^_M;&````^,S,S,P```!XS,S,>````'QF
M9GQ@8```?,S,?`P,``#<=F9@\````'S`>`SX`!`P?#`P-!@```#,S,S,?```
M`,S,S'@P````QM;^_FP```#&;#ALQ@```,S,S'P,^```_)@P9/P`'#`PX#`P
M'``8&!@`&!@8`.`P,!PP,.``=MP``````````````````````/\`````&!@8
M&!@8&!@````?&!@8&````/@8&!@8&!@8'P`````8&!CX`````!@8&!\8&!@8
M&!@8^!@8&!@```#_&!@8&!@8&/\`````&!@8_Q@8&!C___\``````````/__
M_______________P\/#P\/#P\`\/#P\/#P\/$4011!%$$415JE6J5:I5JMUW
MW7?==]UW#AL;&!@8&!@``'Q\?'P````````8`````P(&!,QH.!``=MP`=MP`
M```,&#!@,!@,`#`8#`8,&#```````$)^`!@8&!@8V-AP`#AL;#@````P2!`@
M>````````#@X`````!@8`'X`&!@`_P#_`````#8V-C8V-C8V`!\8'Q@8&!@D
M`#QF?F`\`````#\V-C8V`#\P-S8V-C8`^!CX&!@8&````/XV-C8V`/X&]C8V
M-C88'Q@?`````#8V-C\`````-C<P/P`````8^!CX`````#8V-OX`````-O8&
M_@`````8'Q@?&!@8&#8V-C<V-C8V-C<P-S8V-C88^!CX&!@8&&8`?F!\8'X`
M-C8V]C8V-C8V]@;V-C8V-@#_`/\8&!@8````_S8V-C8`_P#W-C8V-AC_`/\`
M````-C8V_P`````V]P#_`````!C_&/\8&!@8-C8V_S8V-C8V]P#W-C8V-CQ"
MF:&AF4(\``#.V_O;S@```'@,?,QV```\8#QF9CP```!F9F9F?P,``#QL;&S^
MQ@``/&9^8#P```!^V]M^&````'Y@8&!@````9CP8/&8```!F;GYV9@``&&9N
M?G9F````9FQX;&8````>-F9F9@```,;^_M;&````9F9^9F8````\9F9F/```
M`'YF9F9F````/F8^-F8```!\9F9\8````#QF8&8\````?A@8&!@```!F9CX&
M/````-M^/'[;````?&9\9GP```!@8'QF?````,;&]M[V````/&8,9CP```#;
MV]O;_P```'P&/@9\````V]O;V_\#``!F9CX&!@```.!@?&9\`,[;V_O;V\X`
M'C9F9GYF9@!\8&!\9F9\`&9F9F9F9G\#.&QL;&QL_L9^8&!\8&!^`'[;V]M^
M&!@`?F!@8&!@8`!F9CP8/&9F`&9F;GYV9F8`/&9N?G9F9@!F;'AP>&QF`!XV
M9F9F9F8`QN[^_M;&Q@!F9F9^9F9F`#QF9F9F9CP`?F9F9F9F9@`^9F9F/C9F
M`'QF9F9\8&``/&9@8&!F/`!^&!@8&!@8`&9F9CX&9CP`V]M^/'[;VP!\9F9\
M9F9\`&!@8'QF9GP`QL;&]M[>]@`\9@8<!F8\`-O;V]O;V_\`>(P&/@:,>`#;
7V]O;V]O_`V9F9CX&!@8`X&!@?&9F?```
`
end
